<?xml version="1.0" encoding="UTF-8"?>
<svg width="25px" height="25px" viewBox="0 0 25 25" version="1.1" xmlns="http://www.w3.org/2000/svg" xmlns:xlink="http://www.w3.org/1999/xlink">
    <!-- Generator: Sketch 48.2 (47327) - http://www.bohemiancoding.com/sketch -->
    <title>Control Icon</title>
    <desc>Created with Sketch.</desc>
    <defs></defs>
    <g id="Symbols" stroke="none" stroke-width="1" fill="none" fill-rule="evenodd">
        <g id="Control-Icon" fill="#898989" fill-rule="nonzero">
            <g id="Layer_1">
                <g>
                    <circle id="Oval" cx="19" cy="6" r="2"></circle>
                    <path d="M19,12 L6,12 C2.691,12 0,9.309 0,6 C0,2.691 2.691,0 6,0 L19,0 C22.309,0 25,2.691 25,6 C25,9.309 22.309,12 19,12 Z M6,2 C3.794,2 2,3.794 2,6 C2,8.206 3.794,10 6,10 L19,10 C21.206,10 23,8.206 23,6 C23,3.794 21.206,2 19,2 L6,2 Z" id="Shape"></path>
                    <circle id="Oval" cx="6" cy="19" r="2"></circle>
                    <path d="M19,25 L6,25 C2.691,25 0,22.309 0,19 C0,15.691 2.691,13 6,13 L19,13 C22.309,13 25,15.691 25,19 C25,22.309 22.309,25 19,25 Z M6,15 C3.794,15 2,16.794 2,19 C2,21.206 3.794,23 6,23 L19,23 C21.206,23 23,21.206 23,19 C23,16.794 21.206,15 19,15 L6,15 Z" id="Shape"></path>
                </g>
            </g>
        </g>
    </g>
</svg>