<?xml version="1.0" encoding="UTF-8"?>
<svg width="47px" height="19px" viewBox="0 0 47 19" version="1.1" xmlns="http://www.w3.org/2000/svg" xmlns:xlink="http://www.w3.org/1999/xlink">
    <!-- Generator: Sketch 48.2 (47327) - http://www.bohemiancoding.com/sketch -->
    <title>Level: Silver</title>
    <desc>Created with Sketch.</desc>
    <defs>
        <linearGradient x1="50%" y1="100%" x2="50%" y2="0%" id="linearGradient-1">
            <stop stop-color="#A6A6A6" offset="0%"></stop>
            <stop stop-color="#E9E9E9" offset="100%"></stop>
        </linearGradient>
        <rect id="path-2" x="0" y="0" width="47" height="19"></rect>
        <text id="text-3" font-family="Lato-Black, Lato" font-size="9" font-weight="700" fill="#FFFFFF">
            <tspan x="8.434" y="13">SILVER</tspan>
        </text>
        <filter x="-8.1%" y="-22.7%" width="122.6%" height="163.6%" filterUnits="objectBoundingBox" id="filter-4">
            <feOffset dx="1" dy="1" in="SourceAlpha" result="shadowOffsetOuter1"></feOffset>
            <feGaussianBlur stdDeviation="1" in="shadowOffsetOuter1" result="shadowBlurOuter1"></feGaussianBlur>
            <feColorMatrix values="0 0 0 0 0   0 0 0 0 0   0 0 0 0 0  0 0 0 0.35 0" type="matrix" in="shadowBlurOuter1"></feColorMatrix>
        </filter>
    </defs>
    <g id="Symbols" stroke="none" stroke-width="1" fill="none" fill-rule="evenodd">
        <g id="Level:-Silver">
            <g id="Rectangle-3">
                <use fill="url(#linearGradient-1)" fill-rule="evenodd" xlink:href="#path-2"></use>
                <rect stroke="#CCCCCC" stroke-width="1" x="0.5" y="0.5" width="46" height="18"></rect>
            </g>
            <g id="SILVER" fill="#FFFFFF" fill-opacity="1">
                <use filter="url(#filter-4)" xlink:href="#text-3"></use>
                <use xlink:href="#text-3"></use>
            </g>
        </g>
    </g>
</svg>