<?xml version="1.0" encoding="UTF-8"?>
<svg width="18px" height="18px" viewBox="0 0 18 18" version="1.1" xmlns="http://www.w3.org/2000/svg" xmlns:xlink="http://www.w3.org/1999/xlink">
    <!-- Generator: Sketch 48.2 (47327) - http://www.bohemiancoding.com/sketch -->
    <title>Points Icon</title>
    <desc>Created with Sketch.</desc>
    <defs></defs>
    <g id="Points-Icon-(Inactive)" stroke="none" stroke-width="1" fill="none" fill-rule="evenodd">
        <g id="Points-Icon">
            <polygon id="Star" fill="#00A9DB" points="9 16.225072 5.92181871 17.4572336 4.35581327 14.5347262 1.20577137 13.5 1.88469312 10.2546206 0.136730223 7.4371664 2.74290414 5.38746402 3.21491151 2.10560001 6.52887985 2.2106532 9 0 11.4711201 2.2106532 14.7850885 2.10560001 15.2570959 5.38746402 17.8632698 7.4371664 16.1153069 10.2546206 16.7942286 13.5 13.6441867 14.5347262 12.0781813 17.4572336"></polygon>
            <polygon id="Star-2" fill="#FFFFFF" points="9.06293706 11.5848206 6.31789069 12.8664322 6.68850983 9.85969822 4.62135874 7.64504377 7.59546033 7.06839161 9.06293706 4.41804822 10.5304138 7.06839161 13.5045154 7.64504377 11.4373643 9.85969822 11.8079834 12.8664322"></polygon>
        </g>
    </g>
</svg>
